\relax 
\abx@aux@sortscheme{nty}
\abx@aux@sortnamekeyscheme{global}
\@writefile{toc}{\boolfalse {citerequest}\boolfalse {citetracker}\boolfalse {pagetracker}\boolfalse {backtracker}\relax }
\@writefile{lof}{\boolfalse {citerequest}\boolfalse {citetracker}\boolfalse {pagetracker}\boolfalse {backtracker}\relax }
\@writefile{lot}{\boolfalse {citerequest}\boolfalse {citetracker}\boolfalse {pagetracker}\boolfalse {backtracker}\relax }
\providecommand*\caption@xref[2]{\@setref\relax\@undefined{#1}}
\newlabel{fig:equispaced21}{{\caption@xref {fig:equispaced21}{ on input line 67}}{3}}
\newlabel{sub@fig:equispaced21}{{}{3}}
\newlabel{fig:equispaced41}{{\caption@xref {fig:equispaced41}{ on input line 72}}{3}}
\newlabel{sub@fig:equispaced41}{{a}{3}}
\newlabel{fig:equispaced61}{{1c}{3}}
\newlabel{sub@fig:equispaced61}{{c}{3}}
\newlabel{fig:equispaced81}{{1d}{3}}
\newlabel{sub@fig:equispaced81}{{d}{3}}
\@writefile{lof}{\defcounter {refsection}{0}\relax }\@writefile{lof}{\contentsline {figure}{\numberline {1}{\ignorespaces Plot of equispaced mesh velocity solutions for meshes of a) $21\times 21$ nodes, b) $41\times 41$ nodes, c) $41\times 41$ nodes and d) $81\times 81$ nodes\relax }}{3}}
\newlabel{fig:equispaced}{{1}{3}}
\newlabel{fig:equispacedC21}{{2a}{4}}
\newlabel{sub@fig:equispacedC21}{{a}{4}}
\newlabel{fig:equispacedC41}{{2b}{4}}
\newlabel{sub@fig:equispacedC41}{{b}{4}}
\newlabel{fig:equispacedC61}{{2c}{4}}
\newlabel{sub@fig:equispacedC61}{{c}{4}}
\newlabel{fig:equispacedC81}{{2d}{4}}
\newlabel{sub@fig:equispacedC81}{{d}{4}}
\@writefile{lof}{\defcounter {refsection}{0}\relax }\@writefile{lof}{\contentsline {figure}{\numberline {2}{\ignorespaces Zoom in of bottom right corner of equispaced mesh velocity solutions for meshes of a) $21\times 21$ nodes, b) $41\times 41$ nodes, c) $41\times 41$ nodes and d) $81\times 81$ nodes\relax }}{4}}
\newlabel{fig:equispacedC}{{2}{4}}
\newlabel{fig:scaled21}{{\caption@xref {fig:scaled21}{ on input line 126}}{5}}
\newlabel{sub@fig:scaled21}{{}{5}}
\newlabel{fig:scaled41}{{\caption@xref {fig:scaled41}{ on input line 131}}{5}}
\newlabel{sub@fig:scaled41}{{a}{5}}
\newlabel{fig:scaled61}{{3c}{5}}
\newlabel{sub@fig:scaled61}{{c}{5}}
\@writefile{lof}{\defcounter {refsection}{0}\relax }\@writefile{lof}{\contentsline {figure}{\numberline {3}{\ignorespaces Caption for LOF}}{5}}
\newlabel{fig:scaled}{{3}{5}}
\newlabel{fig:scaledC21}{{4a}{6}}
\newlabel{sub@fig:scaledC21}{{a}{6}}
\newlabel{fig:scaledC41}{{4b}{6}}
\newlabel{sub@fig:scaledC41}{{b}{6}}
\newlabel{fig:scaledC61}{{4c}{6}}
\newlabel{sub@fig:scaledC61}{{c}{6}}
\newlabel{fig:scaledC61zoom}{{4d}{6}}
\newlabel{sub@fig:scaledC61zoom}{{d}{6}}
\@writefile{lof}{\defcounter {refsection}{0}\relax }\@writefile{lof}{\contentsline {figure}{\numberline {4}{\ignorespaces Zoom in of bottom right corner of scaled mesh velocity solutions for meshes of a) $21\times 21$ nodes, b) $41\times 41$ nodes and c) $61\times 61$ nodes. d) Is another view of c) where the second recirculation eddy has been zoomed in on.\relax }}{6}}
\newlabel{fig:scaledC}{{4}{6}}
\newlabel{fig:tvn}{{5a}{7}}
\newlabel{sub@fig:tvn}{{a}{7}}
\newlabel{fig:mrs32}{{5b}{7}}
\newlabel{sub@fig:mrs32}{{b}{7}}
\newlabel{fig:mrs16}{{5c}{7}}
\newlabel{sub@fig:mrs16}{{c}{7}}
\@writefile{lof}{\defcounter {refsection}{0}\relax }\@writefile{lof}{\contentsline {figure}{\numberline {5}{\ignorespaces Plots generated in mesh refinement study. a) Total shear force on lid vs number of nodes. b) Attempt to find shear force as a function of the average node spacing and order of upwinding scheme. c) Plot of observed linear correlation between the shear force and (1/Total nodes)$^{(1/6)}$\relax }}{7}}
\newlabel{fig:mrs}{{5}{7}}
